{
	"slack_url": "ENC[AES256_GCM,data:QuUd2hWB1T1tzWnRSSMoTlewsnmT2+u9PvMBuRu1t/6+Lyg+qzUlC1MQ3PWvPCbCRLaEFUxZaVq0wnsyla4Wd8gw7Ve8a9LAzkxwPueo9/pD,iv:JNncM7mgOIBGLzIW8U6M7GNt2VU7WaA5Vfl9GdMPudY=,tag:5ZLKIiuHhyyb7/VKcnSfzA==,type:str]",
	"gitlab_token": "ENC[AES256_GCM,data:qvjhR6S+LU1IqSt19AIWcpzOzhlZNNZVXGE=,iv:djfw6AYtCPxk0Trd3iIZzd5BgIHRN5qEd+5TwzzQuVA=,tag:+G/9DUU5WBUi0pLtuPsBTw==,type:str]",
	"sops": {
		"kms": null,
		"gcp_kms": null,
		"azure_kv": null,
		"hc_vault": null,
		"age": null,
		"lastmodified": "2022-06-22T07:29:37Z",
		"mac": "ENC[AES256_GCM,data:2Enx8GcV4Ecds6KTSVzEQLr5z3KofyYltDkx44L0E0FIGAHszRZpiWaOhuK7DNO58UF5MJVcEKSwp9rcCrIf5CQgn9k7HhSV1/bexfx8SuyBVgtte5c924II6ZPQSk8/Nz2o918dwNq+uNg7SR2SQ2u0gYSqbtRN1xroTloGlhQ=,iv:/9AxodWf1HXV9KlZ3T6wBgH3bEiuOn5A1wZUN4wxvlI=,tag:yTJ3WPurCp0SiQ0jU5FWNw==,type:str]",
		"pgp": [
			{
				"created_at": "2022-06-22T07:29:37Z",
				"enc": "-----BEGIN PGP MESSAGE-----\n\nwYwDv53DB/Jp83kBBACCgKoCp0CCmc7PBRvsgUgku+SdTPY8gx1pUwXRYHF6PSkJ\ncBd2g2ScZN8N8dK/2fPnDPZTlb9crCebbUAqBCMyLs0wtAlye3hCpczECZtS9h7e\nh8sJaXQcUvg90fWhuHTrmt2MOdhHgk5qzvoS3aMqZS8C8yB3tn8/krzXRT05YdJR\nAQXZGIY1YpzgZT8u6E3hq3VeHX/iNNhtW4mQcLgiS+BT6aITNVylrJbUAxsuAIOC\noAddviMnOhnxmpXC1PbUNUS848KjcfEpk32VixOzfiym\n=FJJX\n-----END PGP MESSAGE-----",
				"fp": "280C492069C11F5AFF89771D533372C8EDBBC67D"
			}
		],
		"unencrypted_suffix": "_unencrypted",
		"version": "3.7.3"
	}
}